{"total":28,"rows":[
{"button1":"<button type='button'><a href =AcceptSales.html>檢視</a></button>","button2":"<button type='button'>客服回覆</button>","id":"2018/05/01","custid":"黃智偉","custname":"02-22130273" , "dept":"三重中興","tel":"0911-842830","request":"20180401","product":"高中業務版","anstype":"硬碟故障,無法讀取","creator":"陳欣愉"},
	{"button1":"<button type='button'><a href =AcceptSales.html>檢視</a></button>","button2":"<button type='button'>客服回覆</button>","id":"2018/05/01","custid":"蘇君翰","custname":"02-29380000","dept":"K宇傳","tel":"0935-222814","request":"20180201","product":"國中業務版","anstype":"平板電腦故障,無法開機","creator":"謝銓雯"},
	{"button1":"<button type='button'><a href =AcceptSales.html>檢視</a></button>","button2":"<button type='button'>客服回覆</button>","id":"2018/05/01","custid":"簡榮進","custname":"02-87896858","dept":"K翊丞","tel":"0936-222222","request":"20170501","product":"平板電腦","anstype":"傳輸線故障,無法開機","creator":"郭育君"}
]}

