{"total":28,"rows":[
	{"button1":"<button type='button'>編輯/檢視</button>","custid":"2018/05/01 10:00:00","id":"a001","custname":"簡文民" , "status":"考試王","tel":"02-22130230","cell":"0911842900","depart":"業務部北區","date1":"2018/05/08","anstype":"EST-1","kid":"江朝民"},
	{"button1":"<button type='button'>編輯/檢視</button>","custid":"2018/05/11 11:00:00","id":"a002","custname":"郭台銘","status":"讀書王","tel":"02-26340173","cell":"0931842920","depart":"業務部三重","date1":"2018/05/08","anstype":"EST-10","kid":"江朝民"},
	{"button1":"<button type='button'>編輯/檢視</button>","custid":"2018/05/12 12:00:00","id":"a011","custname":"江朝貴","status":"分析王","tel":"02-22800289","cell":"0938742800","depart":"業務部北投","date1":"2018/05/08","anstype":"EST-18","kid":"江朝民"}
]}

