{"total":28,"rows":[
	{"aa":"wer","custid":"AI1000xx006","parentname":"元龍","studentname":"元斗","tel":"02-22222222","mobile":"0936-222222","address":"台中市西屯區工業一路xx號xx樓","similar":"學生姓名相同"},
	{"aa":"we","custid":"AI1000xx007","parentname":"元鳳","studentname":"元斗","tel":"02-22222222","mobile":"0936-222222","address":"台中市西屯區工業一路xx號xx樓","similar":"學生姓名相同"}
	
]}