{"total":28,"rows":[
	{"button1":"<button type='button'><a href ='detailCustAll.html'>檢視</a></button></button>","id":"20180501-10:01","custid":"郭台銘","custname":"02-22130273" , "status":"K喬學","tel":"0911-842830","request":"20180401","post":"台北市","address":"信義區松仁路100號","cotel":"02-22223333","custno":"AI100055005","sutdentname":"郭曉如"},
	{"button1":"<button type='button'><a href ='detailCustAll.html'>檢視</a></button>","id":"20180504-10:02","custid":"曹興誠","custname":"02-29380000","status":"K揚青二","tel":"0935-222814","request":"20180201","post":"台北市","address":"大安區仁愛路二段10號","cotel":"02-22225555","custno":"AI100066006","sutdentname":"曹子鈴"},
	{"button1":"<button type='button'><a href ='detailCustAll.html'>檢視</a></button>","id":"20180503-09:10","custid":"費玉清","custname":"02-87896858","status":"K喬皓","tel":"0936-222222","request":"20170501","post":"台北市","address":"南港區工業一路99號10樓","cotel":"02-22226666","custno":"AI100077007","sutdentname":"費林名"}
]}
	

