{"total":28,"rows":[
	{"button1":"<button type='button'><a href ='detailmaintain.html'>檢視</a></button>","set_datetime":"2018/01/01 20:00", "call_content":"台中助理淑貞來電表示客戶有買升學王三科送學測總複習，但客戶收到的寶盒沒有學測總複習，" , "staff_ans":"客服會通知組裝來回件時間。發MAIL-七天來回件9/9PM03:15(瑤)客服告知因目前沒有查詢到組裝回覆故確認後再聯繫助理。", "receive_date":"2018/01/04", "dept_service":"此件已於107/01/05將寶盒補寄出去，寄出單號：1001-1606-5993" ,"staff":"鄭成功","close_date":"2018/01/05"},
	{"button1":"<button type='button'><a href ='editCustRecord.html'>檢視</a></button>","set_datetime":"2018/03/08 10:00", "call_content":"助理來電表示昨天顧問師有到客戶家售服，確認此客戶是七天內客戶，請公司協助來回件更換。" , "staff_ans":"已確定，硬碟內建資料有問題，但因不確定客戶是否為7天內用戶，已請顧問師明天進線至客服確認。如是7天內用戶麻煩已用7天來回件方式更換硬碟。" ,"receive_date":"2018/03/09", "dept_service":"組裝組回覆：去件單號：1001-1606-6781--回件單號：5000-0820-2014" ,"staff":"鄭芝龍","close_date":"2018/03/10"},
	{"button1":"<button type='button'><a href ='editCustRecord.html'>檢視</a></button>","set_datetime":"2018/04/09 02:00", "call_content":"客戶來電表示高中的硬碟出現格式化，換了其他電腦都是一樣。" , "staff_ans":"客服請客戶將硬碟寄回檢測更新，但客戶表示他還有一顆國中硬碟，要請顧問師處理，", "receive_date":"2018/04/10", "dept_service":"7/3單位回覆：張副總已與客戶聯繫並協助解決問題" ,"staff":"鄭進一","close_date":"2018/04/11"}
]}